double-angle	value of the double-angle
sin ( 2 x )	2 sin ( x ) cos ( x ) = 2 tan ( x ) / ( 1 + tan ^ 2 ( x ) )
cos ( 2 x )	cos ^ 2 ( x ) - sin ^ 2 ( x ) = ( 1 - tan ^ 2 ( x ) ) / ( 1 + tan ^ 2 ( x ) )
tan ( 2 x )	2 tan ( x ) / ( 1 - tan ^ 2 ( x ) )
